2.739955076217651140e+02
2.875148883819580092e+01
1.918352561950683466e+01
1.730231997489929086e+01
1.616729478836059641e+01
1.502926865577697768e+01
1.411772057533264224e+01
1.326386764526367124e+01
1.254684977531433177e+01
1.197003918647766163e+01
1.144260991096496660e+01
1.098464324951171811e+01
1.082122770309448256e+01
1.045539980888366749e+01
1.017666602134704590e+01
9.968061780929565074e+00
9.789204454421996715e+00
9.496224250793456889e+00
9.507649683952331898e+00
9.331077842712401704e+00
9.003962306976317720e+00
8.933962664604187864e+00
8.805447010993956880e+00
8.738343296051025888e+00
8.666646361351013184e+00
8.733986334800720286e+00
8.599582657814025310e+00
8.356709675788879466e+00
8.323080301284790039e+00
8.301819663047790954e+00
8.268776359558104971e+00
8.199429411888122132e+00
8.167790265083313628e+00
8.158240103721619008e+00
8.117132496833800559e+00
8.112264270782469922e+00
7.998473176956176545e+00
7.921930289268493297e+00
7.939719262123108301e+00
7.943584504127502832e+00
7.858933615684509100e+00
7.786632890701294052e+00
7.782261490821838379e+00
7.778525447845458629e+00
7.729206175804137935e+00
7.762805008888244984e+00
7.699752206802368271e+00
7.651420655250549707e+00
7.706223721504211532e+00
7.644213972091674414e+00
