4.142260419845580799e+01
1.950283004760742145e+01
1.779566022872924691e+01
1.641428073883056626e+01
1.517360443115234325e+01
1.398654337882995691e+01
1.349621150016784732e+01
1.294679131507873571e+01
1.260376055717468269e+01
1.218950135231018095e+01
1.166597626686096234e+01
1.134962013244628842e+01
1.106566267013549876e+01
1.077113242149352956e+01
1.051341933250427196e+01
1.026432214736938420e+01
1.000873829841613727e+01
9.953868875503539826e+00
9.633188619613648029e+00
9.470695829391479137e+00
9.335285177230835174e+00
9.246746807098388032e+00
9.028301148414611177e+00
9.017083239555358176e+00
8.806900658607482058e+00
8.686862268447875124e+00
8.635624499320984526e+00
8.542431569099425914e+00
8.456987700462342161e+00
8.385220060348510529e+00
8.251741828918456534e+00
7.969074072837829981e+00
7.921309456825256667e+00
7.918293843269347931e+00
7.802125658988952495e+00
7.815122518539428853e+00
7.739702043533324805e+00
7.689470596313476847e+00
7.643891706466674485e+00
7.644588999748229696e+00
7.590976076126098704e+00
7.580634851455688050e+00
7.358912963867187074e+00
7.377631664276123047e+00
7.252921361923217347e+00
7.282342224121093999e+00
7.286445107460021831e+00
7.154912519454955877e+00
7.178116846084594549e+00
7.151574058532714773e+00
