1.549239453697204567e+02
2.383715160369872876e+01
1.777771728515624972e+01
1.617596462249755973e+01
1.492836271286010685e+01
1.387983288764953649e+01
1.296098131179809521e+01
1.222430217742920000e+01
1.158385000228881800e+01
1.086965749740600629e+01
1.050569487571716287e+01
1.008555131912231495e+01
9.864515953063964560e+00
9.529264898300171538e+00
9.362937049865722727e+00
9.086588973999022656e+00
8.978722896575927592e+00
8.698487267494201092e+00
8.579052772521972514e+00
8.515463848114013246e+00
8.583907074928283976e+00
8.289043269157410521e+00
7.949481968879699600e+00
7.849778499603271342e+00
7.871762442588805975e+00
7.884427990913390971e+00
7.594336156845092667e+00
7.584510641098022532e+00
7.474326372146606445e+00
7.484095258712768484e+00
7.450596694946288956e+00
7.437117223739623917e+00
7.341715888977050852e+00
7.259163818359374964e+00
7.212089095115661763e+00
7.163745360374450755e+00
7.226413717269897674e+00
7.127586727142333878e+00
7.154933166503906428e+00
7.084715890884399236e+00
7.034584550857544194e+00
7.017899174690246156e+00
7.042902731895447133e+00
6.976373190879821884e+00
6.954047522544860804e+00
6.957453250885009766e+00
7.002301421165466166e+00
6.916222839355468999e+00
6.939211297035217108e+00
6.943621582984924601e+00
