2.787410961151123274e+02
2.900246717453002887e+01
1.868641778945922738e+01
1.656236748695373606e+01
1.540913635253906300e+01
1.448272000312805119e+01
1.360818783760070794e+01
1.282729927062988295e+01
1.217730846405029332e+01
1.158216421127319329e+01
1.108746203422546373e+01
1.067727248191833489e+01
1.033724057197570723e+01
1.005811348915100112e+01
9.795704421997070810e+00
9.604353075027466602e+00
9.544091320037841442e+00
9.310253863334656543e+00
9.183031187057494549e+00
8.978109502792358754e+00
8.960898370742798491e+00
8.803197259902953320e+00
8.786829071044921946e+00
8.627201666831970428e+00
8.586045942306519407e+00
8.192127413749695108e+00
8.142944321632384685e+00
8.058988599777221040e+00
8.065173115730285502e+00
7.977685203552246307e+00
7.978256931304931854e+00
7.922047657966613698e+00
7.968855772018432759e+00
8.023182673454284597e+00
7.749019045829772523e+00
7.684391703605651713e+00
7.692617263793945170e+00
7.630056362152100036e+00
7.601275353431701909e+00
7.558733062744140696e+00
7.553579521179199396e+00
7.499345602989197168e+00
7.518450474739074352e+00
7.496790790557861683e+00
7.424623851776122940e+00
7.372600636482238734e+00
7.311562976837158168e+00
7.284405980110168599e+00
7.303532032966614018e+00
7.244247350692749166e+00
